"Tough Salt-Grilled Fish","Ironshroom x2
Armored Carp x2
Rock Salt",90,"High","4:20","Restores five hearts"
"Tough Fish and Mushroom Skewer","Hylian Shroom
Armored Carp",30,"Low","1:20","Restore three hearts"
"Tough Seafood Skewer","Ironshell Crab x5",120,"High","4:10","Restores six hearts"
"Tough Fried Wild Greens","Fortified Pumpkin",10,"Low","0:50","Restore one heart"
"Tough Veggie Rice Balls","Hylian Rice 
Armoranth x4",70,"Low","4:20","Restore two hearts"
"Tough Porgy Meunière","Tabantha Wheat
Goat Butter
Armored Porgy x3",100,"High","4:50","Restores eight hearts"
"Tough Hot Buttered Apple","Apple
Fortified Pumpkin
Goat Butter",30,"Low","2:40","Restore three hearts"
"Tough Meat-Stuffed Pumpkin","Fortified Pumpkin
Raw Bird Drumstick",30,"Low","1:20","Restore three hearts - Add various seasoning to increase duration and effect"
"Tough Meaty Rice Balls","Ironshroom
Raw Meat
Hylian Rice",40,"Low","2:20","Restore five hearts"
"Tough Milk","Fortified Pumpkin
Milk",20,"Low","2:10","Restore two hearts"
"Tough Monster Soup","Fortified Pumpkin
Milk
Tabantha Wheat
Goat Butter
Monster Extract ",50,"Low","3:10","Restore 7 hearts"
"Tough Mushroom Skewer","Ironshroom",10,"Low","0:50","Restore one heart"
"Tough Mushroom Skewer","Ironshroom x2",20,"Low","1:40","Restore two hearts"
"Tough Mushroom Skewer","Ironshroom x3",40,"Mid","2:30","Restore three hearts"
"Tough Mushroom Skewer","Ironshroom x4",50,"High","3:20","Restore four hearts"
"Tough Mushroom Skewer","Ironshroom x5",70,"High","4:10","Restore five hearts"
"Tough Prime Meat and Rice Bowl","Ironshroom
Raw Prime Meat
Hylian Rice
Rock Salt",60,"Low","3:20","Restore six hearts"
"Tough Steamed Meat","Armoranth
Raw Meat",30,"Low","1:20","Restore two hearts"
"Tough Meaty Rice Balls","Armoranth
Fortified Pumpkin
Raw Bird Drumstick
Hylian Rice
Rock Salt",70,"Low","4:10","Restore five hearts"
"Tough Fried Wild Greens","Armoranth
Fortified Pumpkin
Ironshroom
Armored Carp
Ironshell Crab",100,"High","4:10","Restore six heart"
"Tough Steamed Mushrooms","Armoranth
Ironshroom",20,"Low","1:40","Restore one heart"
"Tough Steamed Mushrooms","Armoranth
Ironshroom x2",40,"Mid","2:30","Restore two hearts"
"Tough Steamed Mushrooms","Armoranth
Ironshroom x3",50,"High","3:20","Restore three hearts"
"Tough Mushroom Skewer","Ironshroom x5",70,"High","4:10","Restore five hearts"
"Tough Meat and Mushroom Skewer","Raw Meat
Ironshroom x4",120,"High","3:50",
"Tough Prime Meat and Seafood Fry","Ironshroom
Armoranth
Raw Prime Meat
Armored Porgy
Ironshell Crab",120,"High","3:50","Restore eight hearts"
"Tough Meat-Stuffed Pumpkin","Ironshroom
Armoranth
Fortified Pumpkin
Raw Prime Meat
Ironshell Crab",110,"High","3:50","Restore seven hearts"
"Tough Omelet","Ironshroom x4
Bird Egg",70,"High","4:50","Restores six hearts"
"Tough Pumpkin Stew","Fortified Pumpkin
Fresh Milk
Tabantha Wheat
Goat Butter",40,"Low","4:30","Restore four hearts"
"Tough Salt-Grilled Fish","Hylian Shroom
Fresh Milk
Rock Salt
Armored Carp x2",80,"Low","4:30","Restore six hearts"
"Tough Salt-Grilled ~Fish","Ironshroom
Fresh Milk
Rock Salt
Armored Porgy x2",90,"High","4:50","Restore six hearts"
