"Sneaky Fried Wild Greens","Silent Princess x3 
Fairy 
Shard of Farosh's Horn",,"High","30:00","Restore 22 3/4 hearts "
"Sneaky Cream of Vegetable Soup","Silent Princess x3
Milk
Rock Salt",100,"High-Level Steath Effect","8:20","Restore seven hearts"
"Sneaky Fried Wild Greens","Silent Princess x5",140,"High","10:00","Restore ten hearts"
"Sneaky Fish and Mushroom Skewer ","Silent Shroom x4
Sneaky River Snail 1x",50,"High","10:00","Restore six hearts"
"Sneaky Mushroom Skewer","Silent Shroom x5",50,"High","10:00","Restore five hearts"
"Sneaky Steamed Fish","Silent Princess
Silent Shroom x2
Sneaky River Snail x2",80,"High","10:00","Restore eight hearts"
"Sneaky Veggie Rice Balls","Hylian Rice 
Silent Princess x4",120,"High","9:00","Restore ten hearts"
"Sneaky Meat Skewer","Silent Princess x3
Raw Meat
Raw Bird Drumstick",130,"High","7:00","Restore ten hearts"
"Sneaky Steamed Mushrooms","Silent Shroom
Blue Nightshade x4",60,"Mid","10:00","Restore one heart"
"Sneaky Mushroom Skewer","Silent Shroom x4",30,"Mid","8:00","Restore four hearts"
"Sneaky Mushroom Skewer","Silent Shroom x3",20,"Mid","6:00","Restore three hearts"
"Sneaky Meat Skewer","Silent Princess x2
Raw Meat
Raw Bird Drumstick
Acorn",110,"Mid","5:50","Restore nine hearts"
"Sneaky Seafood Meuniere","Sneaky River Snail 
Tabantha Wheat 
Goat Butter 
Fresh Milk",40,"Low","10:40","Restore five hearts"
"Sneaky Veggie Rice Balls","Hylian Rice 
Blue Nightshade x4",60,"Low","9:00","Restore two hearts"
"Sneaky Steamed Mushrooms","Silent Shroom
Blue Nightshade x3",40,"Low","8:00","Restore one heart"
"Sneaky Steamed Mushrooms","Silent Shroom
Blue Nightshade x2",30,"Low","6:00","Restore four hearts"
"Sneaky Steamed Fish","Silent Shroom
Blue Nightshade
Sneaky River Snail",30,"Low","6:00","Restore three hearts"
"Sneaky Steamed Mushrooms","Silent Shroom
Blue Nightshade",20,"Low","4:00","Restore three hearts"
"Sneaky Mushroom Skewer","Silent Shroom x2",10,"Low","4:00","Restore two hearts"
"Sneaky Mushroom Skewer","Silent Shroom 
Hylian Shroom",10,"Low","2:30","Restore two hearts "
"Sneaky Mushroom Skewer","Silent Shroom",10,"Low","2:00","Restore one heart"
"Sneaky Seafood Skewer","Sneaky River Snail",10,"Low","2:00","Restore two hearts"
"Sneaky Fried Wild Greens","Blue Nightshade",10,"Low","2:00",
