"Hasty Meat Skewer","Fleet-Lotus Seeds x4 
Raw Meat",80,"High","4:30","Restores 6 hearts"
"Hasty Fruit and Mushroom Mix","Fleet-Lotus Seeds 
Rushroom 
Shard of Farosh's Horn ",,"High","30:00","Restores 7 hearts "
"Hasty Fragrant Mushroom Sauté","Fleet-Lotus Seeds x2 
Swift Violet 
Rushroom 
Goron Spice",80,"High","5:30","Restores 3 hearts"
"Hasty Fruit and Mushroom Mix","Fleet-Lotus Seeds x3, 
Rushroom x 2",60,"High","5:00","Restores 5 hearts"
"Hasty Veggie Rice Balls","Hylian Rice 
Swift Violet x4",120,"High","5:00","Restore 2 hearts"
"Hasty Fruit and Mushroom Mix","Fleet-Lotus Seeds x3, 
Hylian Shroom x 2",60,"Mid","4:00","Restores five hearts"
"Hasty Steamed Fruit","Fleet-Lotus Seeds
Fleet-Lotus Seeds
Swift Carrot",20,"Mid","3:00","Restores three hearts"
"Hasty Veggie Cream Soup","Swift Carrot x2 
Milk 
Rock Salt 
Monster Extract ",50,"Low","11:20","Restore three hearts. Must be cooked while wearing the Dark Link costume."
"Hasty Apple Pie","Cane Sugar 
Apple 
Fleet Lotus Seed 
Goat Butter 
Tabantha Wheat",50,"Low","10:10","Restores four hearts"
"Hasty Carrot Cake","Swift Carrot x2 
Tabantha Wheat 
Goat Butter 
Cane Sugar",50,"Low","5:40","Restores four hearts"
"Hasty Mushroom Skewer","Rushroom x5",50,"Low","3:00","Restore five hearts"
"Hasty Mushroom Skewer","Rushroom x4",30,"Low","2:30","Restore four hearts"
"Hasty Fried Wild Greens","Swift Carrot",10,"Low","2:10","Restore one heart"
"Hasty Fish and Mushroom Skewer","Fleet-Lotus Seeds
Hylian Shroom
Hyrule Bass",30,"Low","2:00","Restore four hearts"
"Hasty Mushroom Skewer","Rushroom x3",20,"Low","2:00","Restore three hearts"
"Hasty Mushroom Skewer","Rushroom x2",10,"Low","1:30","Restore two hearts"
"Hasty Mushroom Skewer","Rushroom",10,"Low","1:00","Restore one heart"
"Hasty Simmered Fruit","Fleet-Lotus Seeds x4
Monster Extract",,"Low to High","1:00 to 30:00","Has a chance of creating one of two elixers: 
Restores four hearts and provides a low-level speed boost for 1:00 minute.
Restores seven hearts and provides a high-level speed boost for 30:00 minutes.
  
Low-level 
  
High-level 
Use a Shard of a Dragon's Horn instead of the Monster Extract for a guaranteed high-level, 30 minute speed boost and 7 & 3/4 health recovery||70"
