"Winterwing Butterfly ",2,,"Chilly ","1/1/1/1 ","2:30 "
"Summerwing Butterfly ",2,,"Spicy ","1/1/1/1 ","2:30 "
"Thunderwing Butterfly ",2,,"Electro ","1/1/1/2 ","2:30 "
"Smotherwing Butterfly ",2,,"Fireproof ","1/1/2/2 ","2:30 "
"Cold Darner ",2,,"Chilly ","1/1/2/3 ","2:30 "
"Warm Darner ",2,,"Spicy ","1/1/3/3 ","2:30 "
"Electric Darner ",2,,"Electro ","1/2/3/3 ","2:30 "
"Restless Cricket ",2,,"Energizing ","1/2/4/5 ","- "
"Bladed Rhino Beetle ",4,,"Mighty ","1/1/1/1 ","0:50 "
"Rugged Rhino Beetle ",4,,"Tough ","1/1/1/1 ","0:50 "
"Energetic Rhino Beetle ",2,,"Energizing ","8/15/15/15 ","- "
"Sunset Firefly ",2,,"Sneaky ","1/1/1/1 ","2:00 "
"Hot-footed Frog ",2,,"Hasty ","1/1/2/3 ","1:00 "
"Tireless Frog ",20,2,"Enduring ","1/2/3/4 ","- "
"Hightail Lizard ",2,,"Hasty ","1/1/1/1 ","1:00 "
"Hearty Lizard ",20,,"Hearty ","4/8/12/16 ","- "
"Fireproof Lizard ",5,,"Fireproof ","1/1/1/1 ","2:30 "
