"Bokoblin Horn ",3,"1:10 "
"Bokoblin Fang ",8,"1:50 "
"Bokoblin Guts ",20,"3:10 "
"Moblin Horn ",5,"1:10 "
"Moblin Fang ",12,"1:50 "
"Moblin Guts ",25,"3:10 "
"Lizalfos Horn ",10,"1:10 "
"Lizalfos Talon ",15,"1:50 "
"Lizalfos Tail ",28,"3:10 "
"Icy Lizalfos Tail ",35,"3:10 "
"Red Lizalfos Tail ",35,"3:10 "
"Yellow Lizalfos Tail ",35,"3:10 "
"Lynel Horn ",40,"1:10 "
"Lynel Hoof ",50,"1:50 "
"Lynel Guts ",200,"3:10 "
"Chuchu Jelly ",5,"1:10 "
"White Chuchu Jelly ",10,"1:50 "
"Red Chuchu Jelly ",10,"1:50 "
"Yellow Chuchu Jelly ",10,"1:50 "
"Keese Wing ",2,"1:10 "
"Ice Keese Wing ",6,"1:50 "
"Fire Keese Wing ",6,"1:50 "
"Electric Keese Wing ",6,"1:50 "
"Keese Eyeball ",20,"3:10 "
"Octorok Tentacle ",10,"1:50 "
"Octorok Eyeball ",25,"1:10 "
"Octo Balloon ",5,"1:10 "
"Hinox Toenail ",20,"1:10 "
"Hinox Tooth ",35,"1:50 "
"Hinox Guts ",80,"3:10 "
"Molduga Fin ",30,"1:50 "
"Molduga Guts ",110,"3:10 "
"Ancient Screw ",12,"1:10 "
"Ancient Spring ",15,"1:10 "
"Ancient Gear ",30,"1:50 "
"Ancient Shaft ",40,"1:50 "
"Ancient Core ",80,"3:10 "
"Giant Ancient Core ",200,"3:10 "
